Report
…
## Warning: There was 1 warning in `mutate()`.
## ℹ In argument: `country_name = countrycode(country, "iso3c", "country.name")`.
## Caused by warning:
## ! Some values were not matched unambiguously: AFR, AMR, EMR, EUR, GLOBAL, SEAR, WB_HI, WB_LI, WB_LMI, WB_UMI, WPR

## # A tibble: 776 × 5
##    id     country  year life_expectancy country_name 
##    <chr>  <chr>   <dbl>           <dbl> <chr>        
##  1 849198 ZMB      2015            60.5 Zambia       
##  2 849665 EMR      2000            65.0 <NA>         
##  3 861849 NZL      2000            78.6 New Zealand  
##  4 862558 TON      2000            70.9 Tonga        
##  5 876748 CIV      2019            62.9 Côte d’Ivoire
##  6 894525 BHS      2010            73.0 Bahamas      
##  7 899460 CRI      2015            80.8 Costa Rica   
##  8 900407 HND      2019            71.9 Honduras     
##  9 905572 ARM      2000            71.9 Armenia      
## 10 939403 UKR      2019            73.0 Ukraine      
## # ℹ 766 more rows

## # A tibble: 732 × 5
##    id     country  year life_expectancy country_name 
##    <chr>  <chr>   <dbl>           <dbl> <chr>        
##  1 849198 ZMB      2015            60.5 Zambia       
##  2 861849 NZL      2000            78.6 New Zealand  
##  3 862558 TON      2000            70.9 Tonga        
##  4 876748 CIV      2019            62.9 Côte d’Ivoire
##  5 894525 BHS      2010            73.0 Bahamas      
##  6 899460 CRI      2015            80.8 Costa Rica   
##  7 900407 HND      2019            71.9 Honduras     
##  8 905572 ARM      2000            71.9 Armenia      
##  9 939403 UKR      2019            73.0 Ukraine      
## 10 966654 CHE      2000            79.7 Switzerland  
## # ℹ 722 more rows
…
